{
    "$schema": "https://json-schema.org/draft/2019-09/schema",
    "$id": "http://example.com/example.json",
    "type": "object",
    "default": {},
    "title": "Root Schema",
    "required": [
        "current_page",
        "data",
        "first_page_url",
        "from",
        "last_page",
        "last_page_url",
        "links",
        "next_page_url",
        "path",
        "per_page",
        "prev_page_url",
        "to",
        "total"
    ],
    "properties": {
        "current_page": {
            "type": "integer",
            "default": 0,
            "title": "The current_page Schema",
            "examples": [
                1
            ]
        },
        "data": {
            "type": "array",
            "default": [],
            "title": "The data Schema",
            "items": {
                "type": "object",
                "default": {},
                "title": "A Schema",
                "required": [
                    "breed",
                    "country",
                    "origin",
                    "coat",
                    "pattern"
                ],
                "properties": {
                    "breed": {
                        "type": "string",
                        "default": "",
                        "title": "The breed Schema",
                        "examples": [
                            "Abyssinian"
                        ]
                    },
                    "country": {
                        "type": "string",
                        "default": "",
                        "title": "The country Schema",
                        "examples": [
                            "Ethiopia"
                        ]
                    },
                    "origin": {
                        "type": "string",
                        "default": "",
                        "title": "The origin Schema",
                        "examples": [
                            "Natural/Standard"
                        ]
                    },
                    "coat": {
                        "type": "string",
                        "default": "",
                        "title": "The coat Schema",
                        "examples": [
                            "Short"
                        ]
                    },
                    "pattern": {
                        "type": "string",
                        "default": "",
                        "title": "The pattern Schema",
                        "examples": [
                            "Ticked"
                        ]
                    }
                },
                "examples": [{
                    "breed": "Abyssinian",
                    "country": "Ethiopia",
                    "origin": "Natural/Standard",
                    "coat": "Short",
                    "pattern": "Ticked"
                }]
            },
            "examples": [
                [{
                    "breed": "Abyssinian",
                    "country": "Ethiopia",
                    "origin": "Natural/Standard",
                    "coat": "Short",
                    "pattern": "Ticked"
                }]
            ]
        },
        "first_page_url": {
            "type": "string",
            "default": "",
            "title": "The first_page_url Schema",
            "examples": [
                "https://catfact.ninja/breeds?page=1"
            ]
        },
        "from": {
            "type": "integer",
            "default": 0,
            "title": "The from Schema",
            "examples": [
                1
            ]
        },
        "last_page": {
            "type": "integer",
            "default": 0,
            "title": "The last_page Schema",
            "examples": [
                98
            ]
        },
        "last_page_url": {
            "type": "string",
            "default": "",
            "title": "The last_page_url Schema",
            "examples": [
                "https://catfact.ninja/breeds?page=98"
            ]
        },
        "links": {
            "type": "array",
            "default": [],
            "title": "The links Schema",
            "items": {
                "type": "object",
                "title": "A Schema",
                "required": [
                    "url",
                    "label",
                    "active"
                ],
                "properties": {
                    "url": {
                        "type": [
                            "null",
                            "string"
                        ],
                        "title": "The url Schema",
                        "examples": [
                            null,
                            "https://catfact.ninja/breeds?page=1",
                            "https://catfact.ninja/breeds?page=2",
                            "https://catfact.ninja/breeds?page=3",
                            "https://catfact.ninja/breeds?page=4",
                            "https://catfact.ninja/breeds?page=5",
                            "https://catfact.ninja/breeds?page=6",
                            "https://catfact.ninja/breeds?page=7",
                            "https://catfact.ninja/breeds?page=8",
                            "https://catfact.ninja/breeds?page=9",
                            "https://catfact.ninja/breeds?page=10",
                            "https://catfact.ninja/breeds?page=97",
                            "https://catfact.ninja/breeds?page=98"
                        ]
                    },
                    "label": {
                        "type": "string",
                        "title": "The label Schema",
                        "examples": [
                            "Previous",
                            "1",
                            "2",
                            "3",
                            "4",
                            "5",
                            "6",
                            "7",
                            "8",
                            "9",
                            "10",
                            "...",
                            "97",
                            "98",
                            "Next"
                        ]
                    },
                    "active": {
                        "type": "boolean",
                        "title": "The active Schema",
                        "examples": [
                            false,
                            true
                        ]
                    }
                },
                "examples": [{
                    "url": null,
                    "label": "Previous",
                    "active": false
                },
                {
                    "url": "https://catfact.ninja/breeds?page=1",
                    "label": "1",
                    "active": true
                },
                {
                    "url": "https://catfact.ninja/breeds?page=2",
                    "label": "2",
                    "active": false
                },
                {
                    "url": "https://catfact.ninja/breeds?page=3",
                    "label": "3",
                    "active": false
                },
                {
                    "url": "https://catfact.ninja/breeds?page=4",
                    "label": "4",
                    "active": false
                },
                {
                    "url": "https://catfact.ninja/breeds?page=5",
                    "label": "5",
                    "active": false
                },
                {
                    "url": "https://catfact.ninja/breeds?page=6",
                    "label": "6",
                    "active": false
                },
                {
                    "url": "https://catfact.ninja/breeds?page=7",
                    "label": "7",
                    "active": false
                },
                {
                    "url": "https://catfact.ninja/breeds?page=8",
                    "label": "8",
                    "active": false
                },
                {
                    "url": "https://catfact.ninja/breeds?page=9",
                    "label": "9",
                    "active": false
                },
                {
                    "url": "https://catfact.ninja/breeds?page=10",
                    "label": "10",
                    "active": false
                },
                {
                    "url": null,
                    "label": "...",
                    "active": false
                },
                {
                    "url": "https://catfact.ninja/breeds?page=97",
                    "label": "97",
                    "active": false
                },
                {
                    "url": "https://catfact.ninja/breeds?page=98",
                    "label": "98",
                    "active": false
                },
                {
                    "url": "https://catfact.ninja/breeds?page=2",
                    "label": "Next",
                    "active": false
                }]
            },
            "examples": [
                [{
                    "url": null,
                    "label": "Previous",
                    "active": false
                },
                {
                    "url": "https://catfact.ninja/breeds?page=1",
                    "label": "1",
                    "active": true
                },
                {
                    "url": "https://catfact.ninja/breeds?page=2",
                    "label": "2",
                    "active": false
                },
                {
                    "url": "https://catfact.ninja/breeds?page=3",
                    "label": "3",
                    "active": false
                },
                {
                    "url": "https://catfact.ninja/breeds?page=4",
                    "label": "4",
                    "active": false
                },
                {
                    "url": "https://catfact.ninja/breeds?page=5",
                    "label": "5",
                    "active": false
                },
                {
                    "url": "https://catfact.ninja/breeds?page=6",
                    "label": "6",
                    "active": false
                },
                {
                    "url": "https://catfact.ninja/breeds?page=7",
                    "label": "7",
                    "active": false
                },
                {
                    "url": "https://catfact.ninja/breeds?page=8",
                    "label": "8",
                    "active": false
                },
                {
                    "url": "https://catfact.ninja/breeds?page=9",
                    "label": "9",
                    "active": false
                },
                {
                    "url": "https://catfact.ninja/breeds?page=10",
                    "label": "10",
                    "active": false
                },
                {
                    "url": null,
                    "label": "...",
                    "active": false
                },
                {
                    "url": "https://catfact.ninja/breeds?page=97",
                    "label": "97",
                    "active": false
                },
                {
                    "url": "https://catfact.ninja/breeds?page=98",
                    "label": "98",
                    "active": false
                },
                {
                    "url": "https://catfact.ninja/breeds?page=2",
                    "label": "Next",
                    "active": false
                }]
            ]
        },
        "next_page_url": {
            "type": "string",
            "default": "",
            "title": "The next_page_url Schema",
            "examples": [
                "https://catfact.ninja/breeds?page=2"
            ]
        },
        "path": {
            "type": "string",
            "default": "",
            "title": "The path Schema",
            "examples": [
                "https://catfact.ninja/breeds"
            ]
        },
        "per_page": {
            "type": "string",
            "default": "",
            "title": "The per_page Schema",
            "examples": [
                "1"
            ]
        },
        "prev_page_url": {
            "type": "null",
            "default": null,
            "title": "The prev_page_url Schema",
            "examples": [
                null
            ]
        },
        "to": {
            "type": "integer",
            "default": 0,
            "title": "The to Schema",
            "examples": [
                1
            ]
        },
        "total": {
            "type": "integer",
            "default": 0,
            "title": "The total Schema",
            "examples": [
                98
            ]
        }
    },
    "examples": [{
        "current_page": 1,
        "data": [{
            "breed": "Abyssinian",
            "country": "Ethiopia",
            "origin": "Natural/Standard",
            "coat": "Short",
            "pattern": "Ticked"
        }],
        "first_page_url": "https://catfact.ninja/breeds?page=1",
        "from": 1,
        "last_page": 98,
        "last_page_url": "https://catfact.ninja/breeds?page=98",
        "links": [{
            "url": null,
            "label": "Previous",
            "active": false
        },
        {
            "url": "https://catfact.ninja/breeds?page=1",
            "label": "1",
            "active": true
        },
        {
            "url": "https://catfact.ninja/breeds?page=2",
            "label": "2",
            "active": false
        },
        {
            "url": "https://catfact.ninja/breeds?page=3",
            "label": "3",
            "active": false
        },
        {
            "url": "https://catfact.ninja/breeds?page=4",
            "label": "4",
            "active": false
        },
        {
            "url": "https://catfact.ninja/breeds?page=5",
            "label": "5",
            "active": false
        },
        {
            "url": "https://catfact.ninja/breeds?page=6",
            "label": "6",
            "active": false
        },
        {
            "url": "https://catfact.ninja/breeds?page=7",
            "label": "7",
            "active": false
        },
        {
            "url": "https://catfact.ninja/breeds?page=8",
            "label": "8",
            "active": false
        },
        {
            "url": "https://catfact.ninja/breeds?page=9",
            "label": "9",
            "active": false
        },
        {
            "url": "https://catfact.ninja/breeds?page=10",
            "label": "10",
            "active": false
        },
        {
            "url": null,
            "label": "...",
            "active": false
        },
        {
            "url": "https://catfact.ninja/breeds?page=97",
            "label": "97",
            "active": false
        },
        {
            "url": "https://catfact.ninja/breeds?page=98",
            "label": "98",
            "active": false
        },
        {
            "url": "https://catfact.ninja/breeds?page=2",
            "label": "Next",
            "active": false
        }],
        "next_page_url": "https://catfact.ninja/breeds?page=2",
        "path": "https://catfact.ninja/breeds",
        "per_page": "1",
        "prev_page_url": null,
        "to": 1,
        "total": 98
    }]
}