{
    "$schema": "https://json-schema.org/draft/2019-09/schema",
    "$id": "http://example.com/example.json",
    "type": "object",
    "default": {},
    "title": "Root Schema",
    "required": [
        "current_page",
        "data",
        "first_page_url",
        "from",
        "last_page",
        "last_page_url",
        "links",
        "next_page_url",
        "path",
        "per_page",
        "prev_page_url",
        "to",
        "total"
    ],
    "properties": {
        "current_page": {
            "type": "integer",
            "default": 0,
            "title": "The current_page Schema",
            "examples": [
                1
            ]
        },
        "data": {
            "type": "array",
            "default": [],
            "title": "The data Schema",
            "items": {
                "type": "object",
                "title": "A Schema",
                "required": [
                    "breed",
                    "country",
                    "origin",
                    "coat",
                    "pattern"
                ],
                "properties": {
                    "breed": {
                        "type": "string",
                        "title": "The breed Schema",
                        "examples": [
                            "Abyssinian",
                            "Aegean",
                            "American Curl",
                            "American Bobtail",
                            "American Shorthair",
                            "American Wirehair",
                            "Arabian Mau",
                            "Australian Mist",
                            "Asian",
                            "Asian Semi-longhair",
                            "Balinese",
                            "Bambino",
                            "Bengal",
                            "Birman",
                            "Bombay"
                        ]
                    },
                    "country": {
                        "type": "string",
                        "title": "The country Schema",
                        "examples": [
                            "Ethiopia",
                            "Greece",
                            "United States",
                            "Arabian Peninsula",
                            "Australia",
                            "developed in the United Kingdom (founding stock from Asia)",
                            "United Kingdom",
                            "developed in the United States (founding stock from Thailand)",
                            "developed in the United States (founding stock from Asia)",
                            "developed in France (founding stock from Burma)"
                        ]
                    },
                    "origin": {
                        "type": "string",
                        "title": "The origin Schema",
                        "examples": [
                            "Natural/Standard",
                            "Mutation",
                            "Natural",
                            "Crossbreed",
                            "",
                            "Hybrid",
                            "Crossbred"
                        ]
                    },
                    "coat": {
                        "type": "string",
                        "title": "The coat Schema",
                        "examples": [
                            "Short",
                            "Semi-long",
                            "Short/Long",
                            "Rex",
                            "Long",
                            "Hairless/Furry down",
                            "Semi Long"
                        ]
                    },
                    "pattern": {
                        "type": "string",
                        "title": "The pattern Schema",
                        "examples": [
                            "Ticked",
                            "Bi- or tri-colored",
                            "All",
                            "All but colorpoint",
                            "",
                            "Spotted and Classic tabby",
                            "Evenly solid",
                            "Solid",
                            "Colorpoint",
                            "Spotted/Marbled"
                        ]
                    }
                },
                "examples": [{
                    "breed": "Abyssinian",
                    "country": "Ethiopia",
                    "origin": "Natural/Standard",
                    "coat": "Short",
                    "pattern": "Ticked"
                },
                {
                    "breed": "Aegean",
                    "country": "Greece",
                    "origin": "Natural/Standard",
                    "coat": "Semi-long",
                    "pattern": "Bi- or tri-colored"
                },
                {
                    "breed": "American Curl",
                    "country": "United States",
                    "origin": "Mutation",
                    "coat": "Short/Long",
                    "pattern": "All"
                },
                {
                    "breed": "American Bobtail",
                    "country": "United States",
                    "origin": "Mutation",
                    "coat": "Short/Long",
                    "pattern": "All"
                },
                {
                    "breed": "American Shorthair",
                    "country": "United States",
                    "origin": "Natural",
                    "coat": "Short",
                    "pattern": "All but colorpoint"
                },
                {
                    "breed": "American Wirehair",
                    "country": "United States",
                    "origin": "Mutation",
                    "coat": "Rex",
                    "pattern": "All but colorpoint"
                },
                {
                    "breed": "Arabian Mau",
                    "country": "Arabian Peninsula",
                    "origin": "Natural",
                    "coat": "Short",
                    "pattern": ""
                },
                {
                    "breed": "Australian Mist",
                    "country": "Australia",
                    "origin": "Crossbreed",
                    "coat": "Short",
                    "pattern": "Spotted and Classic tabby"
                },
                {
                    "breed": "Asian",
                    "country": "developed in the United Kingdom (founding stock from Asia)",
                    "origin": "",
                    "coat": "Short",
                    "pattern": "Evenly solid"
                },
                {
                    "breed": "Asian Semi-longhair",
                    "country": "United Kingdom",
                    "origin": "Crossbreed",
                    "coat": "Semi-long",
                    "pattern": "Solid"
                },
                {
                    "breed": "Balinese",
                    "country": "developed in the United States (founding stock from Thailand)",
                    "origin": "Crossbreed",
                    "coat": "Long",
                    "pattern": "Colorpoint"
                },
                {
                    "breed": "Bambino",
                    "country": "United States",
                    "origin": "Crossbreed",
                    "coat": "Hairless/Furry down",
                    "pattern": ""
                },
                {
                    "breed": "Bengal",
                    "country": "developed in the United States (founding stock from Asia)",
                    "origin": "Hybrid",
                    "coat": "Short",
                    "pattern": "Spotted/Marbled"
                },
                {
                    "breed": "Birman",
                    "country": "developed in France (founding stock from Burma)",
                    "origin": "Natural",
                    "coat": "Semi Long",
                    "pattern": "Colorpoint"
                },
                {
                    "breed": "Bombay",
                    "country": "developed in the United States (founding stock from Asia)",
                    "origin": "Crossbred",
                    "coat": "Short",
                    "pattern": "Solid"
                }]
            },
            "examples": [
                [{
                    "breed": "Abyssinian",
                    "country": "Ethiopia",
                    "origin": "Natural/Standard",
                    "coat": "Short",
                    "pattern": "Ticked"
                },
                {
                    "breed": "Aegean",
                    "country": "Greece",
                    "origin": "Natural/Standard",
                    "coat": "Semi-long",
                    "pattern": "Bi- or tri-colored"
                },
                {
                    "breed": "American Curl",
                    "country": "United States",
                    "origin": "Mutation",
                    "coat": "Short/Long",
                    "pattern": "All"
                },
                {
                    "breed": "American Bobtail",
                    "country": "United States",
                    "origin": "Mutation",
                    "coat": "Short/Long",
                    "pattern": "All"
                },
                {
                    "breed": "American Shorthair",
                    "country": "United States",
                    "origin": "Natural",
                    "coat": "Short",
                    "pattern": "All but colorpoint"
                },
                {
                    "breed": "American Wirehair",
                    "country": "United States",
                    "origin": "Mutation",
                    "coat": "Rex",
                    "pattern": "All but colorpoint"
                },
                {
                    "breed": "Arabian Mau",
                    "country": "Arabian Peninsula",
                    "origin": "Natural",
                    "coat": "Short",
                    "pattern": ""
                },
                {
                    "breed": "Australian Mist",
                    "country": "Australia",
                    "origin": "Crossbreed",
                    "coat": "Short",
                    "pattern": "Spotted and Classic tabby"
                },
                {
                    "breed": "Asian",
                    "country": "developed in the United Kingdom (founding stock from Asia)",
                    "origin": "",
                    "coat": "Short",
                    "pattern": "Evenly solid"
                },
                {
                    "breed": "Asian Semi-longhair",
                    "country": "United Kingdom",
                    "origin": "Crossbreed",
                    "coat": "Semi-long",
                    "pattern": "Solid"
                },
                {
                    "breed": "Balinese",
                    "country": "developed in the United States (founding stock from Thailand)",
                    "origin": "Crossbreed",
                    "coat": "Long",
                    "pattern": "Colorpoint"
                },
                {
                    "breed": "Bambino",
                    "country": "United States",
                    "origin": "Crossbreed",
                    "coat": "Hairless/Furry down",
                    "pattern": ""
                },
                {
                    "breed": "Bengal",
                    "country": "developed in the United States (founding stock from Asia)",
                    "origin": "Hybrid",
                    "coat": "Short",
                    "pattern": "Spotted/Marbled"
                },
                {
                    "breed": "Birman",
                    "country": "developed in France (founding stock from Burma)",
                    "origin": "Natural",
                    "coat": "Semi Long",
                    "pattern": "Colorpoint"
                },
                {
                    "breed": "Bombay",
                    "country": "developed in the United States (founding stock from Asia)",
                    "origin": "Crossbred",
                    "coat": "Short",
                    "pattern": "Solid"
                }]
            ]
        },
        "first_page_url": {
            "type": "string",
            "default": "",
            "title": "The first_page_url Schema",
            "examples": [
                "https://catfact.ninja/breeds?page=1"
            ]
        },
        "from": {
            "type": "integer",
            "default": 0,
            "title": "The from Schema",
            "examples": [
                1
            ]
        },
        "last_page": {
            "type": "integer",
            "default": 0,
            "title": "The last_page Schema",
            "examples": [
                7
            ]
        },
        "last_page_url": {
            "type": "string",
            "default": "",
            "title": "The last_page_url Schema",
            "examples": [
                "https://catfact.ninja/breeds?page=7"
            ]
        },
        "links": {
            "type": "array",
            "default": [],
            "title": "The links Schema",
            "items": {
                "type": "object",
                "title": "A Schema",
                "required": [
                    "url",
                    "label",
                    "active"
                ],
                "properties": {
                    "url": {
                        "type": [
                            "null",
                            "string"
                        ],
                        "title": "The url Schema",
                        "examples": [
                            null,
                            "https://catfact.ninja/breeds?page=1",
                            "https://catfact.ninja/breeds?page=2",
                            "https://catfact.ninja/breeds?page=3",
                            "https://catfact.ninja/breeds?page=4",
                            "https://catfact.ninja/breeds?page=5",
                            "https://catfact.ninja/breeds?page=6",
                            "https://catfact.ninja/breeds?page=7"
                        ]
                    },
                    "label": {
                        "type": "string",
                        "title": "The label Schema",
                        "examples": [
                            "Previous",
                            "1",
                            "2",
                            "3",
                            "4",
                            "5",
                            "6",
                            "7",
                            "Next"
                        ]
                    },
                    "active": {
                        "type": "boolean",
                        "title": "The active Schema",
                        "examples": [
                            false,
                            true
                        ]
                    }
                },
                "examples": [{
                    "url": null,
                    "label": "Previous",
                    "active": false
                },
                {
                    "url": "https://catfact.ninja/breeds?page=1",
                    "label": "1",
                    "active": true
                },
                {
                    "url": "https://catfact.ninja/breeds?page=2",
                    "label": "2",
                    "active": false
                },
                {
                    "url": "https://catfact.ninja/breeds?page=3",
                    "label": "3",
                    "active": false
                },
                {
                    "url": "https://catfact.ninja/breeds?page=4",
                    "label": "4",
                    "active": false
                },
                {
                    "url": "https://catfact.ninja/breeds?page=5",
                    "label": "5",
                    "active": false
                },
                {
                    "url": "https://catfact.ninja/breeds?page=6",
                    "label": "6",
                    "active": false
                },
                {
                    "url": "https://catfact.ninja/breeds?page=7",
                    "label": "7",
                    "active": false
                },
                {
                    "url": "https://catfact.ninja/breeds?page=2",
                    "label": "Next",
                    "active": false
                }]
            },
            "examples": [
                [{
                    "url": null,
                    "label": "Previous",
                    "active": false
                },
                {
                    "url": "https://catfact.ninja/breeds?page=1",
                    "label": "1",
                    "active": true
                },
                {
                    "url": "https://catfact.ninja/breeds?page=2",
                    "label": "2",
                    "active": false
                },
                {
                    "url": "https://catfact.ninja/breeds?page=3",
                    "label": "3",
                    "active": false
                },
                {
                    "url": "https://catfact.ninja/breeds?page=4",
                    "label": "4",
                    "active": false
                },
                {
                    "url": "https://catfact.ninja/breeds?page=5",
                    "label": "5",
                    "active": false
                },
                {
                    "url": "https://catfact.ninja/breeds?page=6",
                    "label": "6",
                    "active": false
                },
                {
                    "url": "https://catfact.ninja/breeds?page=7",
                    "label": "7",
                    "active": false
                },
                {
                    "url": "https://catfact.ninja/breeds?page=2",
                    "label": "Next",
                    "active": false
                }]
            ]
        },
        "next_page_url": {
            "type": "string",
            "default": "",
            "title": "The next_page_url Schema",
            "examples": [
                "https://catfact.ninja/breeds?page=2"
            ]
        },
        "path": {
            "type": "string",
            "default": "",
            "title": "The path Schema",
            "examples": [
                "https://catfact.ninja/breeds"
            ]
        },
        "per_page": {
            "type": "integer",
            "default": 0,
            "title": "The per_page Schema",
            "examples": [
                15
            ]
        },
        "prev_page_url": {
            "type": "null",
            "default": null,
            "title": "The prev_page_url Schema",
            "examples": [
                null
            ]
        },
        "to": {
            "type": "integer",
            "default": 0,
            "title": "The to Schema",
            "examples": [
                15
            ]
        },
        "total": {
            "type": "integer",
            "default": 0,
            "title": "The total Schema",
            "examples": [
                98
            ]
        }
    },
    "examples": [{
        "current_page": 1,
        "data": [{
            "breed": "Abyssinian",
            "country": "Ethiopia",
            "origin": "Natural/Standard",
            "coat": "Short",
            "pattern": "Ticked"
        },
        {
            "breed": "Aegean",
            "country": "Greece",
            "origin": "Natural/Standard",
            "coat": "Semi-long",
            "pattern": "Bi- or tri-colored"
        },
        {
            "breed": "American Curl",
            "country": "United States",
            "origin": "Mutation",
            "coat": "Short/Long",
            "pattern": "All"
        },
        {
            "breed": "American Bobtail",
            "country": "United States",
            "origin": "Mutation",
            "coat": "Short/Long",
            "pattern": "All"
        },
        {
            "breed": "American Shorthair",
            "country": "United States",
            "origin": "Natural",
            "coat": "Short",
            "pattern": "All but colorpoint"
        },
        {
            "breed": "American Wirehair",
            "country": "United States",
            "origin": "Mutation",
            "coat": "Rex",
            "pattern": "All but colorpoint"
        },
        {
            "breed": "Arabian Mau",
            "country": "Arabian Peninsula",
            "origin": "Natural",
            "coat": "Short",
            "pattern": ""
        },
        {
            "breed": "Australian Mist",
            "country": "Australia",
            "origin": "Crossbreed",
            "coat": "Short",
            "pattern": "Spotted and Classic tabby"
        },
        {
            "breed": "Asian",
            "country": "developed in the United Kingdom (founding stock from Asia)",
            "origin": "",
            "coat": "Short",
            "pattern": "Evenly solid"
        },
        {
            "breed": "Asian Semi-longhair",
            "country": "United Kingdom",
            "origin": "Crossbreed",
            "coat": "Semi-long",
            "pattern": "Solid"
        },
        {
            "breed": "Balinese",
            "country": "developed in the United States (founding stock from Thailand)",
            "origin": "Crossbreed",
            "coat": "Long",
            "pattern": "Colorpoint"
        },
        {
            "breed": "Bambino",
            "country": "United States",
            "origin": "Crossbreed",
            "coat": "Hairless/Furry down",
            "pattern": ""
        },
        {
            "breed": "Bengal",
            "country": "developed in the United States (founding stock from Asia)",
            "origin": "Hybrid",
            "coat": "Short",
            "pattern": "Spotted/Marbled"
        },
        {
            "breed": "Birman",
            "country": "developed in France (founding stock from Burma)",
            "origin": "Natural",
            "coat": "Semi Long",
            "pattern": "Colorpoint"
        },
        {
            "breed": "Bombay",
            "country": "developed in the United States (founding stock from Asia)",
            "origin": "Crossbred",
            "coat": "Short",
            "pattern": "Solid"
        }],
        "first_page_url": "https://catfact.ninja/breeds?page=1",
        "from": 1,
        "last_page": 7,
        "last_page_url": "https://catfact.ninja/breeds?page=7",
        "links": [{
            "url": null,
            "label": "Previous",
            "active": false
        },
        {
            "url": "https://catfact.ninja/breeds?page=1",
            "label": "1",
            "active": true
        },
        {
            "url": "https://catfact.ninja/breeds?page=2",
            "label": "2",
            "active": false
        },
        {
            "url": "https://catfact.ninja/breeds?page=3",
            "label": "3",
            "active": false
        },
        {
            "url": "https://catfact.ninja/breeds?page=4",
            "label": "4",
            "active": false
        },
        {
            "url": "https://catfact.ninja/breeds?page=5",
            "label": "5",
            "active": false
        },
        {
            "url": "https://catfact.ninja/breeds?page=6",
            "label": "6",
            "active": false
        },
        {
            "url": "https://catfact.ninja/breeds?page=7",
            "label": "7",
            "active": false
        },
        {
            "url": "https://catfact.ninja/breeds?page=2",
            "label": "Next",
            "active": false
        }],
        "next_page_url": "https://catfact.ninja/breeds?page=2",
        "path": "https://catfact.ninja/breeds",
        "per_page": 15,
        "prev_page_url": null,
        "to": 15,
        "total": 98
    }]
}